[
  { "value": 1, "label": "blue" },
  { "value": 2, "label": "brown" },
  { "value": 3, "label": "yellow" },
  { "value": 4, "label": "red" },
  { "value": 5, "label": "purple" },
  { "value": 6, "label": "gray" },
  { "value": 7, "label": "orange" },
  { "value": 8, "label": "black" },
  { "value": 9, "label": "white" },
  { "value": 10, "label": "green" }
]
